CHANGE (Modules Name)
- CERTIFICATE
- OBJ INPUT
- OBj FINISH
- OBJECT
- APPROVE
- SKIN

NEW MENU
- EXHIBITION

NEW ACCESS LEVEL
- Exhibition

DATABASE CHANGE LOG
- ADD NEW FIELD --> tb_lab_desk : gems_n_f

-------------------------------------------------------------------------
FILE ASSET 
- ajax-js.js